{
	"easycom": {
		"^u-(.*)": "@/uview-ui/components/u-$1/u-$1.vue"
	},
	"pages": [ //pages数组中第一项表示应用启动页，参考：https://uniapp.dcloud.io/collocation/pages
		{
			"path": "pages/tabbar/index/index",
			"style": {
				"navigationBarTitleText": "首页"
			}
		},
		{
			"path": "pages/tabbar/user/user",
			"style": {
				"navigationBarTitleText": "个人中心"
			}
		}, {
			"path": "pages/user/login/login",
			"style": {
				"navigationBarTitleText": "登录",
				"enablePullDownRefresh": false,
				"navigationStyle": "custom"
			}
		}, {
			"path": "pages/user/log",
			"style": {
				"navigationBarTitleText": "答题记录",
				"enablePullDownRefresh": false
			}
		}
	],
	"globalStyle": {
		// #ifdef H5
		"navigationStyle": "custom",
		// #endif
		"navigationBarTextStyle": "black",
		"navigationBarTitleText": "uni-app",
		"navigationBarBackgroundColor": "#F8F8F8",
		"backgroundColor": "#F8F8F8"

	},
	"tabBar": {
		"color": "#7A7E83",
		"selectedColor": "#e97516",
		"borderStyle": "white",
		"backgroundColor": "#fff",
		"list": [{
				"pagePath": "pages/tabbar/index/index",
				"iconPath": "static/tabbar/home.png",
				"selectedIconPath": "static/tabbar/home-active.png",
				"text": "全民学党史"
			},
			{
				"pagePath": "pages/tabbar/user/user",
				"iconPath": "static/tabbar/user.png",
				"selectedIconPath": "static/tabbar/user-active.png",
				"text": "个人中心"
			}
		]
	}
}
